…
```r
df = df %>%
  mutate_at(vars(sex,cp, fbs, restecg, exang, slope, ca,  thal, target), as.factor)

df
```

```
## # A tibble: 303 x 14
##      age sex   cp    trestbps  chol fbs   restecg thalach exang oldpeak slope
##    <dbl> <fct> <fct>    <dbl> <dbl> <fct> <fct>     <dbl> <fct>   <dbl> <fct>
##  1    63 1     3          145   233 1     0           150 0         2.3 0    
##  2    37 1     2          130   250 0     1           187 0         3.5 0    
##  3    41 0     1          130   204 0     0           172 0         1.4 2    
##  4    56 1     1          120   236 0     1           178 0         0.8 2    
##  5    57 0     0          120   354 0     1           163 1         0.6 2    
##  6    57 1     0          140   192 0     1           148 0         0.4 1    
##  7    56 0     1          140   294 0     0           153 0         1.3 1    
##  8    44 1     1          120   263 0     1           173 0         0   2    
##  9    52 1     2          172   199 1     1           162 0         0.5 2    
## 10    57 1     2          150   168 0     1           174 0         1.6 2    
## # ... with 293 more rows, and 3 more variables: ca <fct>, thal <fct>,
## #   target <fct>
```
…
